<svg xmlns="http://www.w3.org/2000/svg" width="393" height="150" viewBox="0 0 393.3 153">
  <g id="Group_2" data-name="Group 2" transform="translate(0 -21.9)">
    <g id="Group_1" data-name="Group 1">
      <path id="Path_1" data-name="Path 1" d="M131.1,21.9V153H0V21.9ZM21.9,43.7v87.4H65.6V65.6H87.5v65.6h21.9V43.7Z"/>
      <path id="Path_2" data-name="Path 2" d="M240.4,21.9V153H196.7v21.9H109.3V21.9H240.4ZM131.1,43.7V153h43.7V131.1h43.7V43.7Zm43.7,21.9h21.9v43.7H174.8Z"/>
      <path id="Path_3" data-name="Path 3" d="M218.5,153V21.9H393.3V153ZM240.4,43.7v87.4h43.7V65.6H306v65.6h21.9V65.6h21.9v65.6h21.9V43.7Z"/>
    </g>
  </g>
</svg>
